Getting Started with centrimpact • centrimpact
…
# Analyze project dynamics
dynamics_results <- analyze_dynamics(dynamics_data)

# View results
print(dynamics_results)
#> $dynamics_df
#> # A tibble: 103 × 7
#>    domain dimension salience weight dimension_value dimension_score domain_score
#>    <chr>  <chr>        <dbl>  <dbl>           <dbl>           <dbl>        <dbl>
#>  1 Conte… Challenge      0.2   0.78           0.156            0.47         0.45
#>  2 Conte… Challenge      0.8   0.84           0.672            0.47         0.45
#>  3 Conte… Challenge      0.6   0.95           0.57             0.47         0.45
#>  4 Conte… Challenge      0.4   1              0.4              0.47         0.45
#>  5 Conte… Challenge      1     1              1                0.47         0.45
#>  6 Conte… Diversity      0.4   0.84           0.336            0.42         0.45
#>  7 Conte… Diversity      0.2   0.9            0.18             0.42         0.45
#>  8 Conte… Diversity      0.6   0.78           0.468            0.42         0.45
#>  9 Conte… Diversity      1     0.78           0.78             0.42         0.45
#> 10 Conte… Diversity      0.8   0.78           0.624            0.42         0.45
#> # ℹ 93 more rows
…
